…
### Read Example Data

``` r
library(hobotemp)
x <- read_hobotemp()
x
```

    ## # A tibble: 9,025 x 5
    ##    Reading DateTime             Temp Intensity Site        
    ##      <int> <dttm>              <dbl>     <dbl> <chr>       
    ##  1      53 2021-05-15 00:04:32  8.18         0 LittleDrisko
    ##  2      54 2021-05-15 00:19:32  8.18         0 LittleDrisko
    ##  3      55 2021-05-15 00:34:32  8.08         0 LittleDrisko
    ##  4      56 2021-05-15 00:49:32  8.18         0 LittleDrisko
    ##  5      57 2021-05-15 01:04:32  8.08         0 LittleDrisko
    ##  6      58 2021-05-15 01:19:32  8.08         0 LittleDrisko
    ##  7      59 2021-05-15 01:34:32  7.98         0 LittleDrisko
    ##  8      60 2021-05-15 01:49:32  7.88         0 LittleDrisko
    ##  9      61 2021-05-15 02:04:32  7.88         0 LittleDrisko
    ## 10      62 2021-05-15 02:19:32  7.88         0 LittleDrisko
    ## # ... with 9,015 more rows

### Read Example Data with User Defined Site

``` r
library(hobotemp)
x <- read_hobotemp(site = "Little Drisko Island")
x
```

    ## # A tibble: 9,025 x 5
    ##    Reading DateTime             Temp Intensity Site                
    ##      <int> <dttm>              <dbl>     <dbl> <chr>               
    ##  1      53 2021-05-15 00:04:32  8.18         0 Little Drisko Island
    ##  2      54 2021-05-15 00:19:32  8.18         0 Little Drisko Island
    ##  3      55 2021-05-15 00:34:32  8.08         0 Little Drisko Island
    ##  4      56 2021-05-15 00:49:32  8.18         0 Little Drisko Island
    ##  5      57 2021-05-15 01:04:32  8.08         0 Little Drisko Island
    ##  6      58 2021-05-15 01:19:32  8.08         0 Little Drisko Island
    ##  7      59 2021-05-15 01:34:32  7.98         0 Little Drisko Island
    ##  8      60 2021-05-15 01:49:32  7.88         0 Little Drisko Island
    ##  9      61 2021-05-15 02:04:32  7.88         0 Little Drisko Island
    ## 10      62 2021-05-15 02:19:32  7.88         0 Little Drisko Island
    ## # ... with 9,015 more rows

### Read Example Data With User Defined Start/Stop Dates

``` r
ss <- as.POSIXct(c("2021-05-20", "2021-06-01"), tz = "UTC")
xud <- read_hobotemp(clipped = "user", startstop = ss)
xud
```

    ## # A tibble: 1,152 x 5
    ##    Reading DateTime             Temp Intensity Site        
    ##      <int> <dttm>              <dbl>     <dbl> <chr>       
    ##  1     533 2021-05-20 00:04:32  8.38         0 LittleDrisko
    ##  2     534 2021-05-20 00:19:32  8.48         0 LittleDrisko
    ##  3     535 2021-05-20 00:34:32  8.48         0 LittleDrisko
    ##  4     536 2021-05-20 00:49:32  8.48         0 LittleDrisko
    ##  5     537 2021-05-20 01:04:32  8.58         0 LittleDrisko
    ##  6     538 2021-05-20 01:19:32  8.58         0 LittleDrisko
    ##  7     539 2021-05-20 01:34:32  8.68         0 LittleDrisko
    ##  8     540 2021-05-20 01:49:32  8.68         0 LittleDrisko
    ##  9     541 2021-05-20 02:04:32  8.78         0 LittleDrisko
    ## 10     542 2021-05-20 02:19:32  8.78         0 LittleDrisko
    ## # ... with 1,142 more rows
…
